OpenROAD 4174c3ad802d2ac1d04d387d2c4b883903f6647e 
This program is licensed under the BSD-3 license. See the LICENSE file for details.
Components of this program may be licensed under more restrictive licenses which must be honored.
[INFO PDN-0001] Inserting grid: stdcell_grid
Setting global connections for newly added cells...
Writing OpenROAD database to /openlane/designs/hehe/runs/RUN_2022.10.24_07.10.34/tmp/floorplan/6-pdn.odb...
Writing layout to /openlane/designs/hehe/runs/RUN_2022.10.24_07.10.34/tmp/floorplan/6-pdn.def...
