
===========================================================================
report_checks -path_delay max (Setup)
============================================================================
Startpoint: _91742_ (rising edge-triggered flip-flop clocked by clk)
Endpoint: _91992_ (rising edge-triggered flip-flop clocked by clk)
Path Group: clk
Path Type: max

Fanout     Cap    Slew   Delay    Time   Description
-----------------------------------------------------------------------------
                  0.15    0.00    0.00   clock clk (rise edge)
                          0.00    0.00   clock network delay (ideal)
                  0.15    0.00    0.00 ^ _91742_/CLK (sky130_fd_sc_hd__dfxtp_2)
                  0.27    0.54    0.54 ^ _91742_/Q (sky130_fd_sc_hd__dfxtp_2)
     8    0.05                           _00026_ (net)
                  0.27    0.00    0.54 ^ _43575_/S0 (sky130_fd_sc_hd__mux4_2)
                  0.05    0.28    0.83 ^ _43575_/X (sky130_fd_sc_hd__mux4_2)
     1    0.00                           _09995_ (net)
                  0.05    0.00    0.83 ^ _43576_/A (sky130_fd_sc_hd__buf_1)
                  0.32    0.29    1.11 ^ _43576_/X (sky130_fd_sc_hd__buf_1)
     7    0.03                           _09996_ (net)
                  0.32    0.00    1.12 ^ _43577_/A (sky130_fd_sc_hd__buf_1)
                  0.73    0.63    1.75 ^ _43577_/X (sky130_fd_sc_hd__buf_1)
    10    0.06                           _09997_ (net)
                  0.73    0.01    1.76 ^ _43578_/A (sky130_fd_sc_hd__buf_1)
                  0.71    0.64    2.40 ^ _43578_/X (sky130_fd_sc_hd__buf_1)
    10    0.06                           _09998_ (net)
                  0.71    0.00    2.40 ^ _43579_/A (sky130_fd_sc_hd__buf_1)
                  1.01    0.86    3.26 ^ _43579_/X (sky130_fd_sc_hd__buf_1)
    10    0.09                           _09999_ (net)
                  1.01    0.01    3.27 ^ _43580_/A (sky130_fd_sc_hd__buf_1)
                  1.19    0.99    4.27 ^ _43580_/X (sky130_fd_sc_hd__buf_1)
    10    0.10                           _10000_ (net)
                  1.19    0.01    4.28 ^ _43581_/A (sky130_fd_sc_hd__buf_1)
                  1.11    0.94    5.22 ^ _43581_/X (sky130_fd_sc_hd__buf_1)
    10    0.10                           _10001_ (net)
                  1.11    0.01    5.23 ^ _43582_/A (sky130_fd_sc_hd__buf_1)
                  0.95    0.82    6.05 ^ _43582_/X (sky130_fd_sc_hd__buf_1)
    10    0.08                           _10002_ (net)
                  0.95    0.01    6.06 ^ _43583_/A (sky130_fd_sc_hd__buf_1)
                  0.60    0.57    6.63 ^ _43583_/X (sky130_fd_sc_hd__buf_1)
    10    0.05                           _10003_ (net)
                  0.61    0.00    6.63 ^ _43584_/A (sky130_fd_sc_hd__buf_1)
                  1.04    0.88    7.51 ^ _43584_/X (sky130_fd_sc_hd__buf_1)
    10    0.09                           _10004_ (net)
                  1.04    0.02    7.53 ^ _43585_/A (sky130_fd_sc_hd__buf_1)
                  0.90    0.78    8.31 ^ _43585_/X (sky130_fd_sc_hd__buf_1)
    10    0.08                           _10005_ (net)
                  0.90    0.00    8.31 ^ _43586_/A (sky130_fd_sc_hd__buf_1)
                  0.87    0.76    9.07 ^ _43586_/X (sky130_fd_sc_hd__buf_1)
    10    0.08                           _10006_ (net)
                  0.87    0.01    9.08 ^ _43587_/A (sky130_fd_sc_hd__buf_1)
                  0.72    0.65    9.73 ^ _43587_/X (sky130_fd_sc_hd__buf_1)
    10    0.06                           _10007_ (net)
                  0.72    0.00    9.74 ^ _43588_/A (sky130_fd_sc_hd__buf_1)
                  0.81    0.71   10.45 ^ _43588_/X (sky130_fd_sc_hd__buf_1)
    10    0.07                           _10008_ (net)
                  0.81    0.00   10.46 ^ _43589_/A (sky130_fd_sc_hd__buf_1)
                  0.82    0.72   11.18 ^ _43589_/X (sky130_fd_sc_hd__buf_1)
    10    0.07                           _10009_ (net)
                  0.82    0.00   11.18 ^ _68206_/A (sky130_fd_sc_hd__buf_1)
                  0.65    0.60   11.78 ^ _68206_/X (sky130_fd_sc_hd__buf_1)
    10    0.06                           _29276_ (net)
                  0.65    0.00   11.78 ^ _68353_/A (sky130_fd_sc_hd__buf_1)
                  0.77    0.68   12.46 ^ _68353_/X (sky130_fd_sc_hd__buf_1)
    10    0.07                           _29421_ (net)
                  0.77    0.01   12.48 ^ _68354_/A (sky130_fd_sc_hd__buf_1)
                  0.94    0.81   13.29 ^ _68354_/X (sky130_fd_sc_hd__buf_1)
    10    0.08                           _29422_ (net)
                  0.94    0.00   13.29 ^ _68440_/A (sky130_fd_sc_hd__buf_1)
                  0.87    0.76   14.05 ^ _68440_/X (sky130_fd_sc_hd__buf_1)
    10    0.08                           _29507_ (net)
                  0.87    0.00   14.06 ^ _68905_/S (sky130_fd_sc_hd__mux2_2)
                  0.05    0.43   14.49 v _68905_/X (sky130_fd_sc_hd__mux2_2)
     1    0.00                           _29966_ (net)
                  0.05    0.00   14.49 v _68906_/A2 (sky130_fd_sc_hd__o21a_2)
                  0.03    0.19   14.68 v _68906_/X (sky130_fd_sc_hd__o21a_2)
     1    0.00                           _29967_ (net)
                  0.03    0.00   14.68 v _68910_/A2 (sky130_fd_sc_hd__a221o_2)
                  0.05    0.39   15.07 v _68910_/X (sky130_fd_sc_hd__a221o_2)
     1    0.00                           _29971_ (net)
                  0.05    0.00   15.07 v _68936_/A2 (sky130_fd_sc_hd__a31o_2)
                  0.06    0.27   15.33 v _68936_/X (sky130_fd_sc_hd__a31o_2)
     1    0.01                           _29997_ (net)
                  0.06    0.00   15.33 v _68937_/B1 (sky130_fd_sc_hd__o21a_2)
                  0.12    0.21   15.55 v _68937_/X (sky130_fd_sc_hd__o21a_2)
     5    0.04                           _29998_ (net)
                  0.13    0.00   15.55 v _78722_/A (sky130_fd_sc_hd__nand2_2)
                  0.21    0.22   15.77 ^ _78722_/Y (sky130_fd_sc_hd__nand2_2)
     2    0.04                           _38156_ (net)
                  0.21    0.00   15.77 ^ _78724_/A (sky130_fd_sc_hd__nand2_2)
                  0.06    0.07   15.85 v _78724_/Y (sky130_fd_sc_hd__nand2_2)
     2    0.00                           _38158_ (net)
                  0.06    0.00   15.85 v _78726_/A (sky130_fd_sc_hd__or2b_2)
                  0.05    0.29   16.14 v _78726_/X (sky130_fd_sc_hd__or2b_2)
     1    0.00                           _38160_ (net)
                  0.05    0.00   16.14 v _78730_/A (sky130_fd_sc_hd__or3b_2)
                  0.07    0.47   16.61 v _78730_/X (sky130_fd_sc_hd__or3b_2)
     1    0.00                           _38164_ (net)
                  0.07    0.00   16.61 v _78738_/A (sky130_fd_sc_hd__or4b_2)
                  0.14    0.77   17.39 v _78738_/X (sky130_fd_sc_hd__or4b_2)
     2    0.01                           _38172_ (net)
                  0.14    0.00   17.39 v _78765_/B (sky130_fd_sc_hd__or4_2)
                  0.22    0.89   18.28 v _78765_/X (sky130_fd_sc_hd__or4_2)
     2    0.04                           _38199_ (net)
                  0.22    0.01   18.28 v _78888_/A_N (sky130_fd_sc_hd__nand4b_2)
                  0.21    0.40   18.68 v _78888_/Y (sky130_fd_sc_hd__nand4b_2)
     2    0.02                           _38322_ (net)
                  0.21    0.00   18.68 v _78891_/B2 (sky130_fd_sc_hd__o2bb2a_2)
                  0.05    0.34   19.03 v _78891_/X (sky130_fd_sc_hd__o2bb2a_2)
     2    0.01                           _38325_ (net)
                  0.05    0.00   19.03 v _78892_/B (sky130_fd_sc_hd__and2_2)
                  0.04    0.19   19.22 v _78892_/X (sky130_fd_sc_hd__and2_2)
     1    0.00                           _38326_ (net)
                  0.04    0.00   19.22 v _78894_/A1 (sky130_fd_sc_hd__o21a_2)
                  0.03    0.20   19.42 v _78894_/X (sky130_fd_sc_hd__o21a_2)
     1    0.00                           _06833_ (net)
                  0.03    0.00   19.42 v _91992_/D (sky130_fd_sc_hd__dfxtp_2)
                                 19.42   data arrival time

                  0.15   12.50   12.50   clock clk (rise edge)
                          0.00   12.50   clock network delay (ideal)
                         -0.25   12.25   clock uncertainty
                          0.00   12.25   clock reconvergence pessimism
                                 12.25 ^ _91992_/CLK (sky130_fd_sc_hd__dfxtp_2)
                         -0.08   12.17   library setup time
                                 12.17   data required time
-----------------------------------------------------------------------------
                                 12.17   data required time
                                -19.42   data arrival time
-----------------------------------------------------------------------------
                                 -7.26   slack (VIOLATED)


Startpoint: _91742_ (rising edge-triggered flip-flop clocked by clk)
Endpoint: _89865_ (rising edge-triggered flip-flop clocked by clk)
Path Group: clk
Path Type: max

Fanout     Cap    Slew   Delay    Time   Description
-----------------------------------------------------------------------------
                  0.15    0.00    0.00   clock clk (rise edge)
                          0.00    0.00   clock network delay (ideal)
                  0.15    0.00    0.00 ^ _91742_/CLK (sky130_fd_sc_hd__dfxtp_2)
                  0.27    0.54    0.54 ^ _91742_/Q (sky130_fd_sc_hd__dfxtp_2)
     8    0.05                           _00026_ (net)
                  0.27    0.00    0.54 ^ _43575_/S0 (sky130_fd_sc_hd__mux4_2)
                  0.05    0.28    0.83 ^ _43575_/X (sky130_fd_sc_hd__mux4_2)
     1    0.00                           _09995_ (net)
                  0.05    0.00    0.83 ^ _43576_/A (sky130_fd_sc_hd__buf_1)
                  0.32    0.29    1.11 ^ _43576_/X (sky130_fd_sc_hd__buf_1)
     7    0.03                           _09996_ (net)
                  0.32    0.00    1.12 ^ _43577_/A (sky130_fd_sc_hd__buf_1)
                  0.73    0.63    1.75 ^ _43577_/X (sky130_fd_sc_hd__buf_1)
    10    0.06                           _09997_ (net)
                  0.73    0.01    1.76 ^ _43578_/A (sky130_fd_sc_hd__buf_1)
                  0.71    0.64    2.40 ^ _43578_/X (sky130_fd_sc_hd__buf_1)
    10    0.06                           _09998_ (net)
                  0.71    0.00    2.40 ^ _43579_/A (sky130_fd_sc_hd__buf_1)
                  1.01    0.86    3.26 ^ _43579_/X (sky130_fd_sc_hd__buf_1)
    10    0.09                           _09999_ (net)
                  1.01    0.01    3.27 ^ _43580_/A (sky130_fd_sc_hd__buf_1)
                  1.19    0.99    4.27 ^ _43580_/X (sky130_fd_sc_hd__buf_1)
    10    0.10                           _10000_ (net)
                  1.19    0.01    4.28 ^ _43581_/A (sky130_fd_sc_hd__buf_1)
                  1.11    0.94    5.22 ^ _43581_/X (sky130_fd_sc_hd__buf_1)
    10    0.10                           _10001_ (net)
                  1.11    0.01    5.23 ^ _43582_/A (sky130_fd_sc_hd__buf_1)
                  0.95    0.82    6.05 ^ _43582_/X (sky130_fd_sc_hd__buf_1)
    10    0.08                           _10002_ (net)
                  0.95    0.01    6.06 ^ _43583_/A (sky130_fd_sc_hd__buf_1)
                  0.60    0.57    6.63 ^ _43583_/X (sky130_fd_sc_hd__buf_1)
    10    0.05                           _10003_ (net)
                  0.61    0.00    6.63 ^ _43584_/A (sky130_fd_sc_hd__buf_1)
                  1.04    0.88    7.51 ^ _43584_/X (sky130_fd_sc_hd__buf_1)
    10    0.09                           _10004_ (net)
                  1.04    0.02    7.53 ^ _43585_/A (sky130_fd_sc_hd__buf_1)
                  0.90    0.78    8.31 ^ _43585_/X (sky130_fd_sc_hd__buf_1)
    10    0.08                           _10005_ (net)
                  0.90    0.00    8.31 ^ _43586_/A (sky130_fd_sc_hd__buf_1)
                  0.87    0.76    9.07 ^ _43586_/X (sky130_fd_sc_hd__buf_1)
    10    0.08                           _10006_ (net)
                  0.87    0.01    9.08 ^ _43587_/A (sky130_fd_sc_hd__buf_1)
                  0.72    0.65    9.73 ^ _43587_/X (sky130_fd_sc_hd__buf_1)
    10    0.06                           _10007_ (net)
                  0.72    0.00    9.74 ^ _43588_/A (sky130_fd_sc_hd__buf_1)
                  0.81    0.71   10.45 ^ _43588_/X (sky130_fd_sc_hd__buf_1)
    10    0.07                           _10008_ (net)
                  0.81    0.00   10.46 ^ _43589_/A (sky130_fd_sc_hd__buf_1)
                  0.82    0.72   11.18 ^ _43589_/X (sky130_fd_sc_hd__buf_1)
    10    0.07                           _10009_ (net)
                  0.82    0.00   11.18 ^ _43590_/A (sky130_fd_sc_hd__buf_1)
                  0.66    0.61   11.79 ^ _43590_/X (sky130_fd_sc_hd__buf_1)
    10    0.06                           _10010_ (net)
                  0.66    0.00   11.79 ^ _43591_/A (sky130_fd_sc_hd__buf_1)
                  0.76    0.68   12.47 ^ _43591_/X (sky130_fd_sc_hd__buf_1)
    10    0.07                           _10011_ (net)
                  0.76    0.01   12.48 ^ _43592_/A (sky130_fd_sc_hd__buf_1)
                  0.70    0.64   13.12 ^ _43592_/X (sky130_fd_sc_hd__buf_1)
    10    0.06                           _10012_ (net)
                  0.70    0.00   13.12 ^ _43593_/A (sky130_fd_sc_hd__buf_1)
                  0.83    0.73   13.84 ^ _43593_/X (sky130_fd_sc_hd__buf_1)
    10    0.07                           _10013_ (net)
                  0.83    0.01   13.85 ^ _43594_/A (sky130_fd_sc_hd__buf_1)
                  0.73    0.66   14.51 ^ _43594_/X (sky130_fd_sc_hd__buf_1)
    10    0.06                           _10014_ (net)
                  0.73    0.00   14.51 ^ _43595_/A (sky130_fd_sc_hd__buf_1)
                  0.59    0.56   15.07 ^ _43595_/X (sky130_fd_sc_hd__buf_1)
    10    0.05                           _10015_ (net)
                  0.59    0.00   15.07 ^ _43805_/S (sky130_fd_sc_hd__mux2_2)
                  0.05    0.27   15.35 ^ _43805_/X (sky130_fd_sc_hd__mux2_2)
     1    0.00                           _10225_ (net)
                  0.05    0.00   15.35 ^ _43808_/A2 (sky130_fd_sc_hd__o211a_2)
                  0.05    0.17   15.52 ^ _43808_/X (sky130_fd_sc_hd__o211a_2)
     1    0.00                           _10228_ (net)
                  0.05    0.00   15.52 ^ _43809_/B1 (sky130_fd_sc_hd__a211o_2)
                  0.05    0.10   15.61 ^ _43809_/X (sky130_fd_sc_hd__a211o_2)
     1    0.00                           _10229_ (net)
                  0.05    0.00   15.61 ^ _43846_/A2 (sky130_fd_sc_hd__a311o_2)
                  0.08    0.19   15.80 ^ _43846_/X (sky130_fd_sc_hd__a311o_2)
     1    0.01                           _10266_ (net)
                  0.08    0.00   15.80 ^ _43848_/B1 (sky130_fd_sc_hd__o311a_2)
                  0.06    0.19   16.00 ^ _43848_/X (sky130_fd_sc_hd__o311a_2)
     1    0.01                           _10268_ (net)
                  0.06    0.00   16.00 ^ _43849_/C (sky130_fd_sc_hd__nand3_2)
                  0.27    0.25   16.24 v _43849_/Y (sky130_fd_sc_hd__nand3_2)
     3    0.04                           _10269_ (net)
                  0.27    0.01   16.25 v _45215_/A (sky130_fd_sc_hd__or3b_2)
                  0.09    0.59   16.84 v _45215_/X (sky130_fd_sc_hd__or3b_2)
     2    0.01                           _11373_ (net)
                  0.09    0.00   16.84 v _45216_/C (sky130_fd_sc_hd__or3_2)
                  0.13    0.52   17.37 v _45216_/X (sky130_fd_sc_hd__or3_2)
     3    0.02                           _11374_ (net)
                  0.13    0.00   17.37 v _45217_/B (sky130_fd_sc_hd__nor2_2)
                  0.30    0.30   17.66 ^ _45217_/Y (sky130_fd_sc_hd__nor2_2)
     5    0.03                           _11375_ (net)
                  0.30    0.00   17.66 ^ _45220_/B (sky130_fd_sc_hd__and2_2)
                  0.07    0.24   17.90 ^ _45220_/X (sky130_fd_sc_hd__and2_2)
     3    0.01                           _11378_ (net)
                  0.07    0.00   17.90 ^ _60545_/A (sky130_fd_sc_hd__buf_1)
                  0.58    0.49   18.39 ^ _60545_/X (sky130_fd_sc_hd__buf_1)
    10    0.05                           _22036_ (net)
                  0.58    0.00   18.39 ^ _60546_/A (sky130_fd_sc_hd__buf_1)
                  0.82    0.72   19.10 ^ _60546_/X (sky130_fd_sc_hd__buf_1)
    10    0.07                           _22037_ (net)
                  0.82    0.01   19.12 ^ _60574_/B1 (sky130_fd_sc_hd__a22o_2)
                  0.05    0.26   19.37 ^ _60574_/X (sky130_fd_sc_hd__a22o_2)
     1    0.00                           _04786_ (net)
                  0.05    0.00   19.38 ^ _89865_/D (sky130_fd_sc_hd__dfxtp_2)
                                 19.38   data arrival time

                  0.15   12.50   12.50   clock clk (rise edge)
                          0.00   12.50   clock network delay (ideal)
                         -0.25   12.25   clock uncertainty
                          0.00   12.25   clock reconvergence pessimism
                                 12.25 ^ _89865_/CLK (sky130_fd_sc_hd__dfxtp_2)
                         -0.04   12.21   library setup time
                                 12.21   data required time
-----------------------------------------------------------------------------
                                 12.21   data required time
                                -19.38   data arrival time
-----------------------------------------------------------------------------
                                 -7.17   slack (VIOLATED)


Startpoint: _91742_ (rising edge-triggered flip-flop clocked by clk)
Endpoint: _89866_ (rising edge-triggered flip-flop clocked by clk)
Path Group: clk
Path Type: max

Fanout     Cap    Slew   Delay    Time   Description
-----------------------------------------------------------------------------
                  0.15    0.00    0.00   clock clk (rise edge)
                          0.00    0.00   clock network delay (ideal)
                  0.15    0.00    0.00 ^ _91742_/CLK (sky130_fd_sc_hd__dfxtp_2)
                  0.27    0.54    0.54 ^ _91742_/Q (sky130_fd_sc_hd__dfxtp_2)
     8    0.05                           _00026_ (net)
                  0.27    0.00    0.54 ^ _43575_/S0 (sky130_fd_sc_hd__mux4_2)
                  0.05    0.28    0.83 ^ _43575_/X (sky130_fd_sc_hd__mux4_2)
     1    0.00                           _09995_ (net)
                  0.05    0.00    0.83 ^ _43576_/A (sky130_fd_sc_hd__buf_1)
                  0.32    0.29    1.11 ^ _43576_/X (sky130_fd_sc_hd__buf_1)
     7    0.03                           _09996_ (net)
                  0.32    0.00    1.12 ^ _43577_/A (sky130_fd_sc_hd__buf_1)
                  0.73    0.63    1.75 ^ _43577_/X (sky130_fd_sc_hd__buf_1)
    10    0.06                           _09997_ (net)
                  0.73    0.01    1.76 ^ _43578_/A (sky130_fd_sc_hd__buf_1)
                  0.71    0.64    2.40 ^ _43578_/X (sky130_fd_sc_hd__buf_1)
    10    0.06                           _09998_ (net)
                  0.71    0.00    2.40 ^ _43579_/A (sky130_fd_sc_hd__buf_1)
                  1.01    0.86    3.26 ^ _43579_/X (sky130_fd_sc_hd__buf_1)
    10    0.09                           _09999_ (net)
                  1.01    0.01    3.27 ^ _43580_/A (sky130_fd_sc_hd__buf_1)
                  1.19    0.99    4.27 ^ _43580_/X (sky130_fd_sc_hd__buf_1)
    10    0.10                           _10000_ (net)
                  1.19    0.01    4.28 ^ _43581_/A (sky130_fd_sc_hd__buf_1)
                  1.11    0.94    5.22 ^ _43581_/X (sky130_fd_sc_hd__buf_1)
    10    0.10                           _10001_ (net)
                  1.11    0.01    5.23 ^ _43582_/A (sky130_fd_sc_hd__buf_1)
                  0.95    0.82    6.05 ^ _43582_/X (sky130_fd_sc_hd__buf_1)
    10    0.08                           _10002_ (net)
                  0.95    0.01    6.06 ^ _43583_/A (sky130_fd_sc_hd__buf_1)
                  0.60    0.57    6.63 ^ _43583_/X (sky130_fd_sc_hd__buf_1)
    10    0.05                           _10003_ (net)
                  0.61    0.00    6.63 ^ _43584_/A (sky130_fd_sc_hd__buf_1)
                  1.04    0.88    7.51 ^ _43584_/X (sky130_fd_sc_hd__buf_1)
    10    0.09                           _10004_ (net)
                  1.04    0.02    7.53 ^ _43585_/A (sky130_fd_sc_hd__buf_1)
                  0.90    0.78    8.31 ^ _43585_/X (sky130_fd_sc_hd__buf_1)
    10    0.08                           _10005_ (net)
                  0.90    0.00    8.31 ^ _43586_/A (sky130_fd_sc_hd__buf_1)
                  0.87    0.76    9.07 ^ _43586_/X (sky130_fd_sc_hd__buf_1)
    10    0.08                           _10006_ (net)
                  0.87    0.01    9.08 ^ _43587_/A (sky130_fd_sc_hd__buf_1)
                  0.72    0.65    9.73 ^ _43587_/X (sky130_fd_sc_hd__buf_1)
    10    0.06                           _10007_ (net)
                  0.72    0.00    9.74 ^ _43588_/A (sky130_fd_sc_hd__buf_1)
                  0.81    0.71   10.45 ^ _43588_/X (sky130_fd_sc_hd__buf_1)
    10    0.07                           _10008_ (net)
                  0.81    0.00   10.46 ^ _43589_/A (sky130_fd_sc_hd__buf_1)
                  0.82    0.72   11.18 ^ _43589_/X (sky130_fd_sc_hd__buf_1)
    10    0.07                           _10009_ (net)
                  0.82    0.00   11.18 ^ _43590_/A (sky130_fd_sc_hd__buf_1)
                  0.66    0.61   11.79 ^ _43590_/X (sky130_fd_sc_hd__buf_1)
    10    0.06                           _10010_ (net)
                  0.66    0.00   11.79 ^ _43591_/A (sky130_fd_sc_hd__buf_1)
                  0.76    0.68   12.47 ^ _43591_/X (sky130_fd_sc_hd__buf_1)
    10    0.07                           _10011_ (net)
                  0.76    0.01   12.48 ^ _43592_/A (sky130_fd_sc_hd__buf_1)
                  0.70    0.64   13.12 ^ _43592_/X (sky130_fd_sc_hd__buf_1)
    10    0.06                           _10012_ (net)
                  0.70    0.00   13.12 ^ _43593_/A (sky130_fd_sc_hd__buf_1)
                  0.83    0.73   13.84 ^ _43593_/X (sky130_fd_sc_hd__buf_1)
    10    0.07                           _10013_ (net)
                  0.83    0.01   13.85 ^ _43594_/A (sky130_fd_sc_hd__buf_1)
                  0.73    0.66   14.51 ^ _43594_/X (sky130_fd_sc_hd__buf_1)
    10    0.06                           _10014_ (net)
                  0.73    0.00   14.51 ^ _43595_/A (sky130_fd_sc_hd__buf_1)
                  0.59    0.56   15.07 ^ _43595_/X (sky130_fd_sc_hd__buf_1)
    10    0.05                           _10015_ (net)
                  0.59    0.00   15.07 ^ _43805_/S (sky130_fd_sc_hd__mux2_2)
                  0.05    0.27   15.35 ^ _43805_/X (sky130_fd_sc_hd__mux2_2)
     1    0.00                           _10225_ (net)
                  0.05    0.00   15.35 ^ _43808_/A2 (sky130_fd_sc_hd__o211a_2)
                  0.05    0.17   15.52 ^ _43808_/X (sky130_fd_sc_hd__o211a_2)
     1    0.00                           _10228_ (net)
                  0.05    0.00   15.52 ^ _43809_/B1 (sky130_fd_sc_hd__a211o_2)
                  0.05    0.10   15.61 ^ _43809_/X (sky130_fd_sc_hd__a211o_2)
     1    0.00                           _10229_ (net)
                  0.05    0.00   15.61 ^ _43846_/A2 (sky130_fd_sc_hd__a311o_2)
                  0.08    0.19   15.80 ^ _43846_/X (sky130_fd_sc_hd__a311o_2)
     1    0.01                           _10266_ (net)
                  0.08    0.00   15.80 ^ _43848_/B1 (sky130_fd_sc_hd__o311a_2)
                  0.06    0.19   16.00 ^ _43848_/X (sky130_fd_sc_hd__o311a_2)
     1    0.01                           _10268_ (net)
                  0.06    0.00   16.00 ^ _43849_/C (sky130_fd_sc_hd__nand3_2)
                  0.27    0.25   16.24 v _43849_/Y (sky130_fd_sc_hd__nand3_2)
     3    0.04                           _10269_ (net)
                  0.27    0.01   16.25 v _45215_/A (sky130_fd_sc_hd__or3b_2)
                  0.09    0.59   16.84 v _45215_/X (sky130_fd_sc_hd__or3b_2)
     2    0.01                           _11373_ (net)
                  0.09    0.00   16.84 v _45216_/C (sky130_fd_sc_hd__or3_2)
                  0.13    0.52   17.37 v _45216_/X (sky130_fd_sc_hd__or3_2)
     3    0.02                           _11374_ (net)
                  0.13    0.00   17.37 v _45217_/B (sky130_fd_sc_hd__nor2_2)
                  0.30    0.30   17.66 ^ _45217_/Y (sky130_fd_sc_hd__nor2_2)
     5    0.03                           _11375_ (net)
                  0.30    0.00   17.66 ^ _45220_/B (sky130_fd_sc_hd__and2_2)
                  0.07    0.24   17.90 ^ _45220_/X (sky130_fd_sc_hd__and2_2)
     3    0.01                           _11378_ (net)
                  0.07    0.00   17.90 ^ _60545_/A (sky130_fd_sc_hd__buf_1)
                  0.58    0.49   18.39 ^ _60545_/X (sky130_fd_sc_hd__buf_1)
    10    0.05                           _22036_ (net)
                  0.58    0.00   18.39 ^ _60546_/A (sky130_fd_sc_hd__buf_1)
                  0.82    0.72   19.10 ^ _60546_/X (sky130_fd_sc_hd__buf_1)
    10    0.07                           _22037_ (net)
                  0.82    0.01   19.12 ^ _60575_/B1 (sky130_fd_sc_hd__a22o_2)
                  0.05    0.26   19.37 ^ _60575_/X (sky130_fd_sc_hd__a22o_2)
     1    0.00                           _04787_ (net)
                  0.05    0.00   19.37 ^ _89866_/D (sky130_fd_sc_hd__dfxtp_2)
                                 19.37   data arrival time

                  0.15   12.50   12.50   clock clk (rise edge)
                          0.00   12.50   clock network delay (ideal)
                         -0.25   12.25   clock uncertainty
                          0.00   12.25   clock reconvergence pessimism
                                 12.25 ^ _89866_/CLK (sky130_fd_sc_hd__dfxtp_2)
                         -0.04   12.21   library setup time
                                 12.21   data required time
-----------------------------------------------------------------------------
                                 12.21   data required time
                                -19.37   data arrival time
-----------------------------------------------------------------------------
                                 -7.17   slack (VIOLATED)


Startpoint: _91742_ (rising edge-triggered flip-flop clocked by clk)
Endpoint: _89864_ (rising edge-triggered flip-flop clocked by clk)
Path Group: clk
Path Type: max

Fanout     Cap    Slew   Delay    Time   Description
-----------------------------------------------------------------------------
                  0.15    0.00    0.00   clock clk (rise edge)
                          0.00    0.00   clock network delay (ideal)
                  0.15    0.00    0.00 ^ _91742_/CLK (sky130_fd_sc_hd__dfxtp_2)
                  0.27    0.54    0.54 ^ _91742_/Q (sky130_fd_sc_hd__dfxtp_2)
     8    0.05                           _00026_ (net)
                  0.27    0.00    0.54 ^ _43575_/S0 (sky130_fd_sc_hd__mux4_2)
                  0.05    0.28    0.83 ^ _43575_/X (sky130_fd_sc_hd__mux4_2)
     1    0.00                           _09995_ (net)
                  0.05    0.00    0.83 ^ _43576_/A (sky130_fd_sc_hd__buf_1)
                  0.32    0.29    1.11 ^ _43576_/X (sky130_fd_sc_hd__buf_1)
     7    0.03                           _09996_ (net)
                  0.32    0.00    1.12 ^ _43577_/A (sky130_fd_sc_hd__buf_1)
                  0.73    0.63    1.75 ^ _43577_/X (sky130_fd_sc_hd__buf_1)
    10    0.06                           _09997_ (net)
                  0.73    0.01    1.76 ^ _43578_/A (sky130_fd_sc_hd__buf_1)
                  0.71    0.64    2.40 ^ _43578_/X (sky130_fd_sc_hd__buf_1)
    10    0.06                           _09998_ (net)
                  0.71    0.00    2.40 ^ _43579_/A (sky130_fd_sc_hd__buf_1)
                  1.01    0.86    3.26 ^ _43579_/X (sky130_fd_sc_hd__buf_1)
    10    0.09                           _09999_ (net)
                  1.01    0.01    3.27 ^ _43580_/A (sky130_fd_sc_hd__buf_1)
                  1.19    0.99    4.27 ^ _43580_/X (sky130_fd_sc_hd__buf_1)
    10    0.10                           _10000_ (net)
                  1.19    0.01    4.28 ^ _43581_/A (sky130_fd_sc_hd__buf_1)
                  1.11    0.94    5.22 ^ _43581_/X (sky130_fd_sc_hd__buf_1)
    10    0.10                           _10001_ (net)
                  1.11    0.01    5.23 ^ _43582_/A (sky130_fd_sc_hd__buf_1)
                  0.95    0.82    6.05 ^ _43582_/X (sky130_fd_sc_hd__buf_1)
    10    0.08                           _10002_ (net)
                  0.95    0.01    6.06 ^ _43583_/A (sky130_fd_sc_hd__buf_1)
                  0.60    0.57    6.63 ^ _43583_/X (sky130_fd_sc_hd__buf_1)
    10    0.05                           _10003_ (net)
                  0.61    0.00    6.63 ^ _43584_/A (sky130_fd_sc_hd__buf_1)
                  1.04    0.88    7.51 ^ _43584_/X (sky130_fd_sc_hd__buf_1)
    10    0.09                           _10004_ (net)
                  1.04    0.02    7.53 ^ _43585_/A (sky130_fd_sc_hd__buf_1)
                  0.90    0.78    8.31 ^ _43585_/X (sky130_fd_sc_hd__buf_1)
    10    0.08                           _10005_ (net)
                  0.90    0.00    8.31 ^ _43586_/A (sky130_fd_sc_hd__buf_1)
                  0.87    0.76    9.07 ^ _43586_/X (sky130_fd_sc_hd__buf_1)
    10    0.08                           _10006_ (net)
                  0.87    0.01    9.08 ^ _43587_/A (sky130_fd_sc_hd__buf_1)
                  0.72    0.65    9.73 ^ _43587_/X (sky130_fd_sc_hd__buf_1)
    10    0.06                           _10007_ (net)
                  0.72    0.00    9.74 ^ _43588_/A (sky130_fd_sc_hd__buf_1)
                  0.81    0.71   10.45 ^ _43588_/X (sky130_fd_sc_hd__buf_1)
    10    0.07                           _10008_ (net)
                  0.81    0.00   10.46 ^ _43589_/A (sky130_fd_sc_hd__buf_1)
                  0.82    0.72   11.18 ^ _43589_/X (sky130_fd_sc_hd__buf_1)
    10    0.07                           _10009_ (net)
                  0.82    0.00   11.18 ^ _43590_/A (sky130_fd_sc_hd__buf_1)
                  0.66    0.61   11.79 ^ _43590_/X (sky130_fd_sc_hd__buf_1)
    10    0.06                           _10010_ (net)
                  0.66    0.00   11.79 ^ _43591_/A (sky130_fd_sc_hd__buf_1)
                  0.76    0.68   12.47 ^ _43591_/X (sky130_fd_sc_hd__buf_1)
    10    0.07                           _10011_ (net)
                  0.76    0.01   12.48 ^ _43592_/A (sky130_fd_sc_hd__buf_1)
                  0.70    0.64   13.12 ^ _43592_/X (sky130_fd_sc_hd__buf_1)
    10    0.06                           _10012_ (net)
                  0.70    0.00   13.12 ^ _43593_/A (sky130_fd_sc_hd__buf_1)
                  0.83    0.73   13.84 ^ _43593_/X (sky130_fd_sc_hd__buf_1)
    10    0.07                           _10013_ (net)
                  0.83    0.01   13.85 ^ _43594_/A (sky130_fd_sc_hd__buf_1)
                  0.73    0.66   14.51 ^ _43594_/X (sky130_fd_sc_hd__buf_1)
    10    0.06                           _10014_ (net)
                  0.73    0.00   14.51 ^ _43595_/A (sky130_fd_sc_hd__buf_1)
                  0.59    0.56   15.07 ^ _43595_/X (sky130_fd_sc_hd__buf_1)
    10    0.05                           _10015_ (net)
                  0.59    0.00   15.07 ^ _43805_/S (sky130_fd_sc_hd__mux2_2)
                  0.05    0.27   15.35 ^ _43805_/X (sky130_fd_sc_hd__mux2_2)
     1    0.00                           _10225_ (net)
                  0.05    0.00   15.35 ^ _43808_/A2 (sky130_fd_sc_hd__o211a_2)
                  0.05    0.17   15.52 ^ _43808_/X (sky130_fd_sc_hd__o211a_2)
     1    0.00                           _10228_ (net)
                  0.05    0.00   15.52 ^ _43809_/B1 (sky130_fd_sc_hd__a211o_2)
                  0.05    0.10   15.61 ^ _43809_/X (sky130_fd_sc_hd__a211o_2)
     1    0.00                           _10229_ (net)
                  0.05    0.00   15.61 ^ _43846_/A2 (sky130_fd_sc_hd__a311o_2)
                  0.08    0.19   15.80 ^ _43846_/X (sky130_fd_sc_hd__a311o_2)
     1    0.01                           _10266_ (net)
                  0.08    0.00   15.80 ^ _43848_/B1 (sky130_fd_sc_hd__o311a_2)
                  0.06    0.19   16.00 ^ _43848_/X (sky130_fd_sc_hd__o311a_2)
     1    0.01                           _10268_ (net)
                  0.06    0.00   16.00 ^ _43849_/C (sky130_fd_sc_hd__nand3_2)
                  0.27    0.25   16.24 v _43849_/Y (sky130_fd_sc_hd__nand3_2)
     3    0.04                           _10269_ (net)
                  0.27    0.01   16.25 v _45215_/A (sky130_fd_sc_hd__or3b_2)
                  0.09    0.59   16.84 v _45215_/X (sky130_fd_sc_hd__or3b_2)
     2    0.01                           _11373_ (net)
                  0.09    0.00   16.84 v _45216_/C (sky130_fd_sc_hd__or3_2)
                  0.13    0.52   17.37 v _45216_/X (sky130_fd_sc_hd__or3_2)
     3    0.02                           _11374_ (net)
                  0.13    0.00   17.37 v _45217_/B (sky130_fd_sc_hd__nor2_2)
                  0.30    0.30   17.66 ^ _45217_/Y (sky130_fd_sc_hd__nor2_2)
     5    0.03                           _11375_ (net)
                  0.30    0.00   17.66 ^ _45220_/B (sky130_fd_sc_hd__and2_2)
                  0.07    0.24   17.90 ^ _45220_/X (sky130_fd_sc_hd__and2_2)
     3    0.01                           _11378_ (net)
                  0.07    0.00   17.90 ^ _60545_/A (sky130_fd_sc_hd__buf_1)
                  0.58    0.49   18.39 ^ _60545_/X (sky130_fd_sc_hd__buf_1)
    10    0.05                           _22036_ (net)
                  0.58    0.00   18.39 ^ _60546_/A (sky130_fd_sc_hd__buf_1)
                  0.82    0.72   19.10 ^ _60546_/X (sky130_fd_sc_hd__buf_1)
    10    0.07                           _22037_ (net)
                  0.82    0.01   19.11 ^ _60573_/B1 (sky130_fd_sc_hd__a22o_2)
                  0.05    0.26   19.37 ^ _60573_/X (sky130_fd_sc_hd__a22o_2)
     1    0.00                           _04785_ (net)
                  0.05    0.00   19.37 ^ _89864_/D (sky130_fd_sc_hd__dfxtp_2)
                                 19.37   data arrival time

                  0.15   12.50   12.50   clock clk (rise edge)
                          0.00   12.50   clock network delay (ideal)
                         -0.25   12.25   clock uncertainty
                          0.00   12.25   clock reconvergence pessimism
                                 12.25 ^ _89864_/CLK (sky130_fd_sc_hd__dfxtp_2)
                         -0.04   12.21   library setup time
                                 12.21   data required time
-----------------------------------------------------------------------------
                                 12.21   data required time
                                -19.37   data arrival time
-----------------------------------------------------------------------------
                                 -7.17   slack (VIOLATED)


Startpoint: _91742_ (rising edge-triggered flip-flop clocked by clk)
Endpoint: _89863_ (rising edge-triggered flip-flop clocked by clk)
Path Group: clk
Path Type: max

Fanout     Cap    Slew   Delay    Time   Description
-----------------------------------------------------------------------------
                  0.15    0.00    0.00   clock clk (rise edge)
                          0.00    0.00   clock network delay (ideal)
                  0.15    0.00    0.00 ^ _91742_/CLK (sky130_fd_sc_hd__dfxtp_2)
                  0.27    0.54    0.54 ^ _91742_/Q (sky130_fd_sc_hd__dfxtp_2)
     8    0.05                           _00026_ (net)
                  0.27    0.00    0.54 ^ _43575_/S0 (sky130_fd_sc_hd__mux4_2)
                  0.05    0.28    0.83 ^ _43575_/X (sky130_fd_sc_hd__mux4_2)
     1    0.00                           _09995_ (net)
                  0.05    0.00    0.83 ^ _43576_/A (sky130_fd_sc_hd__buf_1)
                  0.32    0.29    1.11 ^ _43576_/X (sky130_fd_sc_hd__buf_1)
     7    0.03                           _09996_ (net)
                  0.32    0.00    1.12 ^ _43577_/A (sky130_fd_sc_hd__buf_1)
                  0.73    0.63    1.75 ^ _43577_/X (sky130_fd_sc_hd__buf_1)
    10    0.06                           _09997_ (net)
                  0.73    0.01    1.76 ^ _43578_/A (sky130_fd_sc_hd__buf_1)
                  0.71    0.64    2.40 ^ _43578_/X (sky130_fd_sc_hd__buf_1)
    10    0.06                           _09998_ (net)
                  0.71    0.00    2.40 ^ _43579_/A (sky130_fd_sc_hd__buf_1)
                  1.01    0.86    3.26 ^ _43579_/X (sky130_fd_sc_hd__buf_1)
    10    0.09                           _09999_ (net)
                  1.01    0.01    3.27 ^ _43580_/A (sky130_fd_sc_hd__buf_1)
                  1.19    0.99    4.27 ^ _43580_/X (sky130_fd_sc_hd__buf_1)
    10    0.10                           _10000_ (net)
                  1.19    0.01    4.28 ^ _43581_/A (sky130_fd_sc_hd__buf_1)
                  1.11    0.94    5.22 ^ _43581_/X (sky130_fd_sc_hd__buf_1)
    10    0.10                           _10001_ (net)
                  1.11    0.01    5.23 ^ _43582_/A (sky130_fd_sc_hd__buf_1)
                  0.95    0.82    6.05 ^ _43582_/X (sky130_fd_sc_hd__buf_1)
    10    0.08                           _10002_ (net)
                  0.95    0.01    6.06 ^ _43583_/A (sky130_fd_sc_hd__buf_1)
                  0.60    0.57    6.63 ^ _43583_/X (sky130_fd_sc_hd__buf_1)
    10    0.05                           _10003_ (net)
                  0.61    0.00    6.63 ^ _43584_/A (sky130_fd_sc_hd__buf_1)
                  1.04    0.88    7.51 ^ _43584_/X (sky130_fd_sc_hd__buf_1)
    10    0.09                           _10004_ (net)
                  1.04    0.02    7.53 ^ _43585_/A (sky130_fd_sc_hd__buf_1)
                  0.90    0.78    8.31 ^ _43585_/X (sky130_fd_sc_hd__buf_1)
    10    0.08                           _10005_ (net)
                  0.90    0.00    8.31 ^ _43586_/A (sky130_fd_sc_hd__buf_1)
                  0.87    0.76    9.07 ^ _43586_/X (sky130_fd_sc_hd__buf_1)
    10    0.08                           _10006_ (net)
                  0.87    0.01    9.08 ^ _43587_/A (sky130_fd_sc_hd__buf_1)
                  0.72    0.65    9.73 ^ _43587_/X (sky130_fd_sc_hd__buf_1)
    10    0.06                           _10007_ (net)
                  0.72    0.00    9.74 ^ _43588_/A (sky130_fd_sc_hd__buf_1)
                  0.81    0.71   10.45 ^ _43588_/X (sky130_fd_sc_hd__buf_1)
    10    0.07                           _10008_ (net)
                  0.81    0.00   10.46 ^ _43589_/A (sky130_fd_sc_hd__buf_1)
                  0.82    0.72   11.18 ^ _43589_/X (sky130_fd_sc_hd__buf_1)
    10    0.07                           _10009_ (net)
                  0.82    0.00   11.18 ^ _43590_/A (sky130_fd_sc_hd__buf_1)
                  0.66    0.61   11.79 ^ _43590_/X (sky130_fd_sc_hd__buf_1)
    10    0.06                           _10010_ (net)
                  0.66    0.00   11.79 ^ _43591_/A (sky130_fd_sc_hd__buf_1)
                  0.76    0.68   12.47 ^ _43591_/X (sky130_fd_sc_hd__buf_1)
    10    0.07                           _10011_ (net)
                  0.76    0.01   12.48 ^ _43592_/A (sky130_fd_sc_hd__buf_1)
                  0.70    0.64   13.12 ^ _43592_/X (sky130_fd_sc_hd__buf_1)
    10    0.06                           _10012_ (net)
                  0.70    0.00   13.12 ^ _43593_/A (sky130_fd_sc_hd__buf_1)
                  0.83    0.73   13.84 ^ _43593_/X (sky130_fd_sc_hd__buf_1)
    10    0.07                           _10013_ (net)
                  0.83    0.01   13.85 ^ _43594_/A (sky130_fd_sc_hd__buf_1)
                  0.73    0.66   14.51 ^ _43594_/X (sky130_fd_sc_hd__buf_1)
    10    0.06                           _10014_ (net)
                  0.73    0.00   14.51 ^ _43595_/A (sky130_fd_sc_hd__buf_1)
                  0.59    0.56   15.07 ^ _43595_/X (sky130_fd_sc_hd__buf_1)
    10    0.05                           _10015_ (net)
                  0.59    0.00   15.07 ^ _43805_/S (sky130_fd_sc_hd__mux2_2)
                  0.05    0.27   15.35 ^ _43805_/X (sky130_fd_sc_hd__mux2_2)
     1    0.00                           _10225_ (net)
                  0.05    0.00   15.35 ^ _43808_/A2 (sky130_fd_sc_hd__o211a_2)
                  0.05    0.17   15.52 ^ _43808_/X (sky130_fd_sc_hd__o211a_2)
     1    0.00                           _10228_ (net)
                  0.05    0.00   15.52 ^ _43809_/B1 (sky130_fd_sc_hd__a211o_2)
                  0.05    0.10   15.61 ^ _43809_/X (sky130_fd_sc_hd__a211o_2)
     1    0.00                           _10229_ (net)
                  0.05    0.00   15.61 ^ _43846_/A2 (sky130_fd_sc_hd__a311o_2)
                  0.08    0.19   15.80 ^ _43846_/X (sky130_fd_sc_hd__a311o_2)
     1    0.01                           _10266_ (net)
                  0.08    0.00   15.80 ^ _43848_/B1 (sky130_fd_sc_hd__o311a_2)
                  0.06    0.19   16.00 ^ _43848_/X (sky130_fd_sc_hd__o311a_2)
     1    0.01                           _10268_ (net)
                  0.06    0.00   16.00 ^ _43849_/C (sky130_fd_sc_hd__nand3_2)
                  0.27    0.25   16.24 v _43849_/Y (sky130_fd_sc_hd__nand3_2)
     3    0.04                           _10269_ (net)
                  0.27    0.01   16.25 v _45215_/A (sky130_fd_sc_hd__or3b_2)
                  0.09    0.59   16.84 v _45215_/X (sky130_fd_sc_hd__or3b_2)
     2    0.01                           _11373_ (net)
                  0.09    0.00   16.84 v _45216_/C (sky130_fd_sc_hd__or3_2)
                  0.13    0.52   17.37 v _45216_/X (sky130_fd_sc_hd__or3_2)
     3    0.02                           _11374_ (net)
                  0.13    0.00   17.37 v _45217_/B (sky130_fd_sc_hd__nor2_2)
                  0.30    0.30   17.66 ^ _45217_/Y (sky130_fd_sc_hd__nor2_2)
     5    0.03                           _11375_ (net)
                  0.30    0.00   17.66 ^ _45220_/B (sky130_fd_sc_hd__and2_2)
                  0.07    0.24   17.90 ^ _45220_/X (sky130_fd_sc_hd__and2_2)
     3    0.01                           _11378_ (net)
                  0.07    0.00   17.90 ^ _60545_/A (sky130_fd_sc_hd__buf_1)
                  0.58    0.49   18.39 ^ _60545_/X (sky130_fd_sc_hd__buf_1)
    10    0.05                           _22036_ (net)
                  0.58    0.00   18.39 ^ _60546_/A (sky130_fd_sc_hd__buf_1)
                  0.82    0.72   19.10 ^ _60546_/X (sky130_fd_sc_hd__buf_1)
    10    0.07                           _22037_ (net)
                  0.82    0.01   19.11 ^ _60572_/B1 (sky130_fd_sc_hd__a22o_2)
                  0.05    0.26   19.37 ^ _60572_/X (sky130_fd_sc_hd__a22o_2)
     1    0.00                           _04784_ (net)
                  0.05    0.00   19.37 ^ _89863_/D (sky130_fd_sc_hd__dfxtp_2)
                                 19.37   data arrival time

                  0.15   12.50   12.50   clock clk (rise edge)
                          0.00   12.50   clock network delay (ideal)
                         -0.25   12.25   clock uncertainty
                          0.00   12.25   clock reconvergence pessimism
                                 12.25 ^ _89863_/CLK (sky130_fd_sc_hd__dfxtp_2)
                         -0.04   12.21   library setup time
                                 12.21   data required time
-----------------------------------------------------------------------------
                                 12.21   data required time
                                -19.37   data arrival time
-----------------------------------------------------------------------------
                                 -7.17   slack (VIOLATED)


