{"vcs1":{"timestamp_begin":1673864750.372818127, "rt":1.65, "ut":0.12, "st":0.05}}
{"SNPS_VCS_INTERNAL_ROOT_START_TIME": 1673864749.568308800}
{"VCS_COMP_START_TIME": 1673864749.568308800}
{"VCS_COMP_END_TIME": 1673864752.074604928}
