core 0: 0x0000000000000000     
core 0: 0x0000000080000000     
core 0: 0x000000008000005C     x1 <- 0x0000000000000000
core 0: 0x0000000080000060     x2 <- 0x0000000000000000
core 0: 0x0000000080000064     x3 <- 0x0000000000000000
core 0: 0x0000000080000068     x4 <- 0x0000000000000000
core 0: 0x000000008000006C     x5 <- 0x0000000000000000
core 0: 0x0000000080000070     x6 <- 0x0000000000000000
core 0: 0x0000000080000074     x7 <- 0x0000000000000000
core 0: 0x0000000080000078     x8 <- 0x0000000000000000
core 0: 0x000000008000007C     x9 <- 0x0000000000000000
core 0: 0x0000000080000080     x10 <- 0x0000000000000000
core 0: 0x0000000080000084     x11 <- 0x0000000000000000
core 0: 0x0000000080000088     x12 <- 0x0000000000000000
core 0: 0x000000008000008C     x13 <- 0x0000000000000000
core 0: 0x0000000080000090     x14 <- 0x0000000000000000
core 0: 0x0000000080000094     x15 <- 0x0000000000000000
core 0: 0x0000000080000098     x16 <- 0x0000000000000000
core 0: 0x000000008000009C     x17 <- 0x0000000000000000
core 0: 0x00000000800000A0     x18 <- 0x0000000000000000
core 0: 0x00000000800000A4     x19 <- 0x0000000000000000
core 0: 0x00000000800000A8     x20 <- 0x0000000000000000
core 0: 0x00000000800000AC     x21 <- 0x0000000000000000
core 0: 0x00000000800000B0     x22 <- 0x0000000000000000
core 0: 0x00000000800000B4     x23 <- 0x0000000000000000
core 0: 0x00000000800000B8     x24 <- 0x0000000000000000
core 0: 0x00000000800000BC     x25 <- 0x0000000000000000
core 0: 0x00000000800000C0     x26 <- 0x0000000000000000
core 0: 0x00000000800000C4     x27 <- 0x0000000000000000
core 0: 0x00000000800000C8     x28 <- 0x0000000000000000
core 0: 0x00000000800000CC     x29 <- 0x0000000000000000
core 0: 0x00000000800000D0     x30 <- 0x0000000000000000
core 0: 0x00000000800000D4     x31 <- 0x0000000000000000
core 0: 0x00000000800000D8     
core 0: 0x00000000800000DC     
core 0: 0x00000000800000E0     x5 <- 0x00000000800000E0
core 0: 0x00000000800000E4     x5 <- 0x00000000800000F0
core 0: 0x00000000800000E8     
core 0: 0x00000000800000EC     
core 0: 0x00000000800000F0     x5 <- 0x00000000800000F0
core 0: 0x00000000800000F4     x5 <- 0x0000000080000114
core 0: 0x00000000800000F8     
core 0: 0x00000000800000FC     x5 <- 0x0000000000000001
core 0: 0x0000000080000100     x5 <- 0x0000000000000000
core 0: 0x0000000080000104     x5 <- 0x00000000FFFFFFFF
core 0: 0x0000000080000108     
core 0: 0x0000000080000114     
core 0: 0x0000000080000118     x5 <- 0x0000000080000118
core 0: 0x000000008000011C     x5 <- 0x000000008000012C
core 0: 0x0000000080000120     
core 0: 0x0000000080000124     
core 0: 0x000000008000012C     x3 <- 0x0000000000000000
core 0: 0x0000000080000130     x5 <- 0x0000000080000130
core 0: 0x0000000080000134     x5 <- 0x0000000080000004
core 0: 0x0000000080000138     
core 0: 0x000000008000013C     x10 <- 0x0000000000000001
core 0: 0x0000000080000140     x10 <- 0x0000000080000000
core 0: 0x0000000080000144     
core 0: 0x000000008000015C     x5 <- 0x000000000000015C
core 0: 0x0000000080000160     x5 <- 0x0000000000000000
core 0: 0x0000000080000164     
core 0: 0x0000000080000178     
core 0: 0x000000008000017C     x5 <- 0x000000008000017C
core 0: 0x0000000080000180     x5 <- 0x0000000080000190
core 0: 0x0000000080000184     
core 0: 0x0000000080000188     
core 0: 0x000000008000018C     mret
core 0: 0x0000000080000190     x3 <- 0x0000000000000002
core 0: 0x0000000080000194     x1 <- 0x0000000000000000
core 0: 0x0000000080000198     x2 <- 0x0000000000000000
core 0: 0x000000008000019C     x14 <- 0x0000000000000000
core 0: 0x00000000800001A0     x7 <- 0x0000000000000000
core 0: 0x00000000800001A4     
core 0: 0x00000000800001A8     x3 <- 0x0000000000000003
core 0: 0x00000000800001AC     x1 <- 0x0000000000000001
core 0: 0x00000000800001B0     x2 <- 0x0000000000000001
core 0: 0x00000000800001B4     x14 <- 0x0000000000000002
core 0: 0x00000000800001B8     x7 <- 0x0000000000000002
core 0: 0x00000000800001BC     
core 0: 0x00000000800001C0     x3 <- 0x0000000000000004
core 0: 0x00000000800001C4     x1 <- 0x0000000000000003
core 0: 0x00000000800001C8     x2 <- 0x0000000000000007
core 0: 0x00000000800001CC     x14 <- 0x000000000000000A
core 0: 0x00000000800001D0     x7 <- 0x000000000000000A
core 0: 0x00000000800001D4     
core 0: 0x00000000800001D8     x3 <- 0x0000000000000005
core 0: 0x00000000800001DC     x1 <- 0x0000000000000000
core 0: 0x00000000800001E0     x2 <- 0x00000000FFFF8000
core 0: 0x00000000800001E4     x14 <- 0x00000000FFFF8000
core 0: 0x00000000800001E8     x7 <- 0x00000000FFFF8000
core 0: 0x00000000800001EC     
core 0: 0x00000000800001F0     x3 <- 0x0000000000000006
core 0: 0x00000000800001F4     x1 <- 0x0000000080000000
core 0: 0x00000000800001F8     x2 <- 0x0000000000000000
core 0: 0x00000000800001FC     x14 <- 0x0000000080000000
core 0: 0x0000000080000200     x7 <- 0x0000000080000000
core 0: 0x0000000080000204     
core 0: 0x0000000080000208     x3 <- 0x0000000000000007
core 0: 0x000000008000020C     x1 <- 0x0000000080000000
core 0: 0x0000000080000210     x2 <- 0x00000000FFFF8000
core 0: 0x0000000080000214     x14 <- 0x000000007FFF8000
core 0: 0x0000000080000218     x7 <- 0x00000000FFFF0000
core 0: 0x000000008000021C     x7 <- 0x00000000FFFEFFFF
core 0: 0x0000000080000220     x7 <- 0x000000007FFF8000
core 0: 0x0000000080000224     
core 0: 0x0000000080000228     x3 <- 0x0000000000000008
core 0: 0x000000008000022C     x1 <- 0x0000000000000000
core 0: 0x0000000080000230     x2 <- 0x0000000000008000
core 0: 0x0000000080000234     x2 <- 0x0000000000007FFF
core 0: 0x0000000080000238     x14 <- 0x0000000000007FFF
core 0: 0x000000008000023C     x7 <- 0x0000000000008000
core 0: 0x0000000080000240     x7 <- 0x0000000000007FFF
core 0: 0x0000000080000244     
core 0: 0x0000000080000248     x3 <- 0x0000000000000009
core 0: 0x000000008000024C     x1 <- 0x0000000080000000
core 0: 0x0000000080000250     x1 <- 0x000000007FFFFFFF
core 0: 0x0000000080000254     x2 <- 0x0000000000000000
core 0: 0x0000000080000258     x14 <- 0x000000007FFFFFFF
core 0: 0x000000008000025C     x7 <- 0x0000000080000000
core 0: 0x0000000080000260     x7 <- 0x000000007FFFFFFF
core 0: 0x0000000080000264     
core 0: 0x0000000080000268     x3 <- 0x000000000000000A
core 0: 0x000000008000026C     x1 <- 0x0000000080000000
core 0: 0x0000000080000270     x1 <- 0x000000007FFFFFFF
core 0: 0x0000000080000274     x2 <- 0x0000000000008000
core 0: 0x0000000080000278     x2 <- 0x0000000000007FFF
core 0: 0x000000008000027C     x14 <- 0x0000000080007FFE
core 0: 0x0000000080000280     x7 <- 0x0000000000010000
core 0: 0x0000000080000284     x7 <- 0x0000000000010001
core 0: 0x0000000080000288     x7 <- 0x0000000080008000
core 0: 0x000000008000028C     x7 <- 0x0000000080007FFE
core 0: 0x0000000080000290     
core 0: 0x0000000080000294     x3 <- 0x000000000000000B
core 0: 0x0000000080000298     x1 <- 0x0000000080000000
core 0: 0x000000008000029C     x2 <- 0x0000000000008000
core 0: 0x00000000800002A0     x2 <- 0x0000000000007FFF
core 0: 0x00000000800002A4     x14 <- 0x0000000080007FFF
core 0: 0x00000000800002A8     x7 <- 0x0000000080008000
core 0: 0x00000000800002AC     x7 <- 0x0000000080007FFF
core 0: 0x00000000800002B0     
core 0: 0x00000000800002B4     x3 <- 0x000000000000000C
core 0: 0x00000000800002B8     x1 <- 0x0000000080000000
core 0: 0x00000000800002BC     x1 <- 0x000000007FFFFFFF
core 0: 0x00000000800002C0     x2 <- 0x00000000FFFF8000
core 0: 0x00000000800002C4     x14 <- 0x000000007FFF7FFF
core 0: 0x00000000800002C8     x7 <- 0x000000007FFF8000
core 0: 0x00000000800002CC     x7 <- 0x000000007FFF7FFF
core 0: 0x00000000800002D0     
core 0: 0x00000000800002D4     x3 <- 0x000000000000000D
core 0: 0x00000000800002D8     x1 <- 0x0000000000000000
core 0: 0x00000000800002DC     x2 <- 0x00000000FFFFFFFF
core 0: 0x00000000800002E0     x14 <- 0x00000000FFFFFFFF
core 0: 0x00000000800002E4     x7 <- 0x00000000FFFFFFFF
core 0: 0x00000000800002E8     
core 0: 0x00000000800002EC     x3 <- 0x000000000000000E
core 0: 0x00000000800002F0     x1 <- 0x00000000FFFFFFFF
core 0: 0x00000000800002F4     x2 <- 0x0000000000000001
core 0: 0x00000000800002F8     x14 <- 0x0000000000000000
core 0: 0x00000000800002FC     x7 <- 0x0000000000000000
core 0: 0x0000000080000300     
core 0: 0x0000000080000304     x3 <- 0x000000000000000F
core 0: 0x0000000080000308     x1 <- 0x00000000FFFFFFFF
core 0: 0x000000008000030C     x2 <- 0x00000000FFFFFFFF
core 0: 0x0000000080000310     x14 <- 0x00000000FFFFFFFE
core 0: 0x0000000080000314     x7 <- 0x00000000FFFFFFFE
core 0: 0x0000000080000318     
core 0: 0x000000008000031C     x3 <- 0x0000000000000010
core 0: 0x0000000080000320     x1 <- 0x0000000000000001
core 0: 0x0000000080000324     x2 <- 0x0000000080000000
core 0: 0x0000000080000328     x2 <- 0x000000007FFFFFFF
core 0: 0x000000008000032C     x14 <- 0x0000000080000000
core 0: 0x0000000080000330     x7 <- 0x0000000000000001
core 0: 0x0000000080000334     x7 <- 0x0000000080000000
core 0: 0x0000000080000338     
core 0: 0x000000008000033C     x3 <- 0x0000000000000011
core 0: 0x0000000080000340     x1 <- 0x000000000000000D
core 0: 0x0000000080000344     x2 <- 0x000000000000000B
core 0: 0x0000000080000348     x1 <- 0x0000000000000018
core 0: 0x000000008000034C     x7 <- 0x0000000000000018
core 0: 0x0000000080000350     
core 0: 0x0000000080000354     x3 <- 0x0000000000000012
core 0: 0x0000000080000358     x1 <- 0x000000000000000E
core 0: 0x000000008000035C     x2 <- 0x000000000000000B
core 0: 0x0000000080000360     x2 <- 0x0000000000000019
core 0: 0x0000000080000364     x7 <- 0x0000000000000019
core 0: 0x0000000080000368     
core 0: 0x000000008000036C     x3 <- 0x0000000000000013
core 0: 0x0000000080000370     x1 <- 0x000000000000000D
core 0: 0x0000000080000374     x1 <- 0x000000000000001A
core 0: 0x0000000080000378     x7 <- 0x000000000000001A
core 0: 0x000000008000037C     
core 0: 0x0000000080000380     x3 <- 0x0000000000000014
core 0: 0x0000000080000384     x4 <- 0x0000000000000000
core 0: 0x0000000080000388     x1 <- 0x000000000000000D
core 0: 0x000000008000038C     x2 <- 0x000000000000000B
core 0: 0x0000000080000390     x14 <- 0x0000000000000018
core 0: 0x0000000080000394     x6 <- 0x0000000000000018
core 0: 0x0000000080000398     x4 <- 0x0000000000000001
core 0: 0x000000008000039C     x5 <- 0x0000000000000002
core 0: 0x00000000800003A0     
core 0: 0x0000000080000388     x1 <- 0x000000000000000D
core 0: 0x000000008000038C     x2 <- 0x000000000000000B
core 0: 0x0000000080000390     x14 <- 0x0000000000000018
core 0: 0x0000000080000394     x6 <- 0x0000000000000018
core 0: 0x0000000080000398     x4 <- 0x0000000000000002
core 0: 0x000000008000039C     x5 <- 0x0000000000000002
core 0: 0x00000000800003A0     
core 0: 0x00000000800003A4     x7 <- 0x0000000000000018
core 0: 0x00000000800003A8     
core 0: 0x00000000800003AC     x3 <- 0x0000000000000015
core 0: 0x00000000800003B0     x4 <- 0x0000000000000000
core 0: 0x00000000800003B4     x1 <- 0x000000000000000E
core 0: 0x00000000800003B8     x2 <- 0x000000000000000B
core 0: 0x00000000800003BC     x14 <- 0x0000000000000019
core 0: 0x00000000800003C0     
core 0: 0x00000000800003C4     x6 <- 0x0000000000000019
core 0: 0x00000000800003C8     x4 <- 0x0000000000000001
core 0: 0x00000000800003CC     x5 <- 0x0000000000000002
core 0: 0x00000000800003D0     
core 0: 0x00000000800003B4     x1 <- 0x000000000000000E
core 0: 0x00000000800003B8     x2 <- 0x000000000000000B
core 0: 0x00000000800003BC     x14 <- 0x0000000000000019
core 0: 0x00000000800003C0     
core 0: 0x00000000800003C4     x6 <- 0x0000000000000019
core 0: 0x00000000800003C8     x4 <- 0x0000000000000002
core 0: 0x00000000800003CC     x5 <- 0x0000000000000002
core 0: 0x00000000800003D0     
core 0: 0x00000000800003D4     x7 <- 0x0000000000000019
core 0: 0x00000000800003D8     
core 0: 0x00000000800003DC     x3 <- 0x0000000000000016
core 0: 0x00000000800003E0     x4 <- 0x0000000000000000
core 0: 0x00000000800003E4     x1 <- 0x000000000000000F
core 0: 0x00000000800003E8     x2 <- 0x000000000000000B
core 0: 0x00000000800003EC     x14 <- 0x000000000000001A
core 0: 0x00000000800003F0     
core 0: 0x00000000800003F4     
core 0: 0x00000000800003F8     x6 <- 0x000000000000001A
core 0: 0x00000000800003FC     x4 <- 0x0000000000000001
core 0: 0x0000000080000400     x5 <- 0x0000000000000002
core 0: 0x0000000080000404     
core 0: 0x00000000800003E4     x1 <- 0x000000000000000F
core 0: 0x00000000800003E8     x2 <- 0x000000000000000B
core 0: 0x00000000800003EC     x14 <- 0x000000000000001A
core 0: 0x00000000800003F0     
core 0: 0x00000000800003F4     
core 0: 0x00000000800003F8     x6 <- 0x000000000000001A
core 0: 0x00000000800003FC     x4 <- 0x0000000000000002
core 0: 0x0000000080000400     x5 <- 0x0000000000000002
core 0: 0x0000000080000404     
core 0: 0x0000000080000408     x7 <- 0x000000000000001A
core 0: 0x000000008000040C     
core 0: 0x0000000080000410     x3 <- 0x0000000000000017
core 0: 0x0000000080000414     x4 <- 0x0000000000000000
core 0: 0x0000000080000418     x1 <- 0x000000000000000D
core 0: 0x000000008000041C     x2 <- 0x000000000000000B
core 0: 0x0000000080000420     x14 <- 0x0000000000000018
core 0: 0x0000000080000424     x4 <- 0x0000000000000001
core 0: 0x0000000080000428     x5 <- 0x0000000000000002
core 0: 0x000000008000042C     
core 0: 0x0000000080000418     x1 <- 0x000000000000000D
core 0: 0x000000008000041C     x2 <- 0x000000000000000B
core 0: 0x0000000080000420     x14 <- 0x0000000000000018
core 0: 0x0000000080000424     x4 <- 0x0000000000000002
core 0: 0x0000000080000428     x5 <- 0x0000000000000002
core 0: 0x000000008000042C     
core 0: 0x0000000080000430     x7 <- 0x0000000000000018
core 0: 0x0000000080000434     
core 0: 0x0000000080000438     x3 <- 0x0000000000000018
core 0: 0x000000008000043C     x4 <- 0x0000000000000000
core 0: 0x0000000080000440     x1 <- 0x000000000000000E
core 0: 0x0000000080000444     x2 <- 0x000000000000000B
core 0: 0x0000000080000448     
core 0: 0x000000008000044C     x14 <- 0x0000000000000019
core 0: 0x0000000080000450     x4 <- 0x0000000000000001
core 0: 0x0000000080000454     x5 <- 0x0000000000000002
core 0: 0x0000000080000458     
core 0: 0x0000000080000440     x1 <- 0x000000000000000E
core 0: 0x0000000080000444     x2 <- 0x000000000000000B
core 0: 0x0000000080000448     
core 0: 0x000000008000044C     x14 <- 0x0000000000000019
core 0: 0x0000000080000450     x4 <- 0x0000000000000002
core 0: 0x0000000080000454     x5 <- 0x0000000000000002
core 0: 0x0000000080000458     
core 0: 0x000000008000045C     x7 <- 0x0000000000000019
core 0: 0x0000000080000460     
core 0: 0x0000000080000464     x3 <- 0x0000000000000019
core 0: 0x0000000080000468     x4 <- 0x0000000000000000
core 0: 0x000000008000046C     x1 <- 0x000000000000000F
core 0: 0x0000000080000470     x2 <- 0x000000000000000B
core 0: 0x0000000080000474     
core 0: 0x0000000080000478     
core 0: 0x000000008000047C     x14 <- 0x000000000000001A
core 0: 0x0000000080000480     x4 <- 0x0000000000000001
core 0: 0x0000000080000484     x5 <- 0x0000000000000002
core 0: 0x0000000080000488     
core 0: 0x000000008000046C     x1 <- 0x000000000000000F
core 0: 0x0000000080000470     x2 <- 0x000000000000000B
core 0: 0x0000000080000474     
core 0: 0x0000000080000478     
core 0: 0x000000008000047C     x14 <- 0x000000000000001A
core 0: 0x0000000080000480     x4 <- 0x0000000000000002
core 0: 0x0000000080000484     x5 <- 0x0000000000000002
core 0: 0x0000000080000488     
core 0: 0x000000008000048C     x7 <- 0x000000000000001A
core 0: 0x0000000080000490     
core 0: 0x0000000080000494     x3 <- 0x000000000000001A
core 0: 0x0000000080000498     x4 <- 0x0000000000000000
core 0: 0x000000008000049C     x1 <- 0x000000000000000D
core 0: 0x00000000800004A0     
core 0: 0x00000000800004A4     x2 <- 0x000000000000000B
core 0: 0x00000000800004A8     x14 <- 0x0000000000000018
core 0: 0x00000000800004AC     x4 <- 0x0000000000000001
core 0: 0x00000000800004B0     x5 <- 0x0000000000000002
core 0: 0x00000000800004B4     
core 0: 0x000000008000049C     x1 <- 0x000000000000000D
core 0: 0x00000000800004A0     
core 0: 0x00000000800004A4     x2 <- 0x000000000000000B
core 0: 0x00000000800004A8     x14 <- 0x0000000000000018
core 0: 0x00000000800004AC     x4 <- 0x0000000000000002
core 0: 0x00000000800004B0     x5 <- 0x0000000000000002
core 0: 0x00000000800004B4     
core 0: 0x00000000800004B8     x7 <- 0x0000000000000018
core 0: 0x00000000800004BC     
core 0: 0x00000000800004C0     x3 <- 0x000000000000001B
core 0: 0x00000000800004C4     x4 <- 0x0000000000000000
core 0: 0x00000000800004C8     x1 <- 0x000000000000000E
core 0: 0x00000000800004CC     
core 0: 0x00000000800004D0     x2 <- 0x000000000000000B
core 0: 0x00000000800004D4     
core 0: 0x00000000800004D8     x14 <- 0x0000000000000019
core 0: 0x00000000800004DC     x4 <- 0x0000000000000001
core 0: 0x00000000800004E0     x5 <- 0x0000000000000002
core 0: 0x00000000800004E4     
core 0: 0x00000000800004C8     x1 <- 0x000000000000000E
core 0: 0x00000000800004CC     
core 0: 0x00000000800004D0     x2 <- 0x000000000000000B
core 0: 0x00000000800004D4     
core 0: 0x00000000800004D8     x14 <- 0x0000000000000019
core 0: 0x00000000800004DC     x4 <- 0x0000000000000002
core 0: 0x00000000800004E0     x5 <- 0x0000000000000002
core 0: 0x00000000800004E4     
core 0: 0x00000000800004E8     x7 <- 0x0000000000000019
core 0: 0x00000000800004EC     
core 0: 0x00000000800004F0     x3 <- 0x000000000000001C
core 0: 0x00000000800004F4     x4 <- 0x0000000000000000
core 0: 0x00000000800004F8     x1 <- 0x000000000000000F
core 0: 0x00000000800004FC     
core 0: 0x0000000080000500     
core 0: 0x0000000080000504     x2 <- 0x000000000000000B
core 0: 0x0000000080000508     x14 <- 0x000000000000001A
core 0: 0x000000008000050C     x4 <- 0x0000000000000001
core 0: 0x0000000080000510     x5 <- 0x0000000000000002
core 0: 0x0000000080000514     
core 0: 0x00000000800004F8     x1 <- 0x000000000000000F
core 0: 0x00000000800004FC     
core 0: 0x0000000080000500     
core 0: 0x0000000080000504     x2 <- 0x000000000000000B
core 0: 0x0000000080000508     x14 <- 0x000000000000001A
core 0: 0x000000008000050C     x4 <- 0x0000000000000002
core 0: 0x0000000080000510     x5 <- 0x0000000000000002
core 0: 0x0000000080000514     
core 0: 0x0000000080000518     x7 <- 0x000000000000001A
core 0: 0x000000008000051C     
core 0: 0x0000000080000520     x3 <- 0x000000000000001D
core 0: 0x0000000080000524     x4 <- 0x0000000000000000
core 0: 0x0000000080000528     x2 <- 0x000000000000000B
core 0: 0x000000008000052C     x1 <- 0x000000000000000D
core 0: 0x0000000080000530     x14 <- 0x0000000000000018
core 0: 0x0000000080000534     x4 <- 0x0000000000000001
core 0: 0x0000000080000538     x5 <- 0x0000000000000002
core 0: 0x000000008000053C     
core 0: 0x0000000080000528     x2 <- 0x000000000000000B
core 0: 0x000000008000052C     x1 <- 0x000000000000000D
core 0: 0x0000000080000530     x14 <- 0x0000000000000018
core 0: 0x0000000080000534     x4 <- 0x0000000000000002
core 0: 0x0000000080000538     x5 <- 0x0000000000000002
core 0: 0x000000008000053C     
core 0: 0x0000000080000540     x7 <- 0x0000000000000018
core 0: 0x0000000080000544     
core 0: 0x0000000080000548     x3 <- 0x000000000000001E
core 0: 0x000000008000054C     x4 <- 0x0000000000000000
core 0: 0x0000000080000550     x2 <- 0x000000000000000B
core 0: 0x0000000080000554     x1 <- 0x000000000000000E
core 0: 0x0000000080000558     
core 0: 0x000000008000055C     x14 <- 0x0000000000000019
core 0: 0x0000000080000560     x4 <- 0x0000000000000001
core 0: 0x0000000080000564     x5 <- 0x0000000000000002
core 0: 0x0000000080000568     
core 0: 0x0000000080000550     x2 <- 0x000000000000000B
core 0: 0x0000000080000554     x1 <- 0x000000000000000E
core 0: 0x0000000080000558     
core 0: 0x000000008000055C     x14 <- 0x0000000000000019
core 0: 0x0000000080000560     x4 <- 0x0000000000000002
core 0: 0x0000000080000564     x5 <- 0x0000000000000002
core 0: 0x0000000080000568     
core 0: 0x000000008000056C     x7 <- 0x0000000000000019
core 0: 0x0000000080000570     
core 0: 0x0000000080000574     x3 <- 0x000000000000001F
core 0: 0x0000000080000578     x4 <- 0x0000000000000000
core 0: 0x000000008000057C     x2 <- 0x000000000000000B
core 0: 0x0000000080000580     x1 <- 0x000000000000000F
core 0: 0x0000000080000584     
core 0: 0x0000000080000588     
core 0: 0x000000008000058C     x14 <- 0x000000000000001A
core 0: 0x0000000080000590     x4 <- 0x0000000000000001
core 0: 0x0000000080000594     x5 <- 0x0000000000000002
core 0: 0x0000000080000598     
core 0: 0x000000008000057C     x2 <- 0x000000000000000B
core 0: 0x0000000080000580     x1 <- 0x000000000000000F
core 0: 0x0000000080000584     
core 0: 0x0000000080000588     
core 0: 0x000000008000058C     x14 <- 0x000000000000001A
core 0: 0x0000000080000590     x4 <- 0x0000000000000002
core 0: 0x0000000080000594     x5 <- 0x0000000000000002
core 0: 0x0000000080000598     
core 0: 0x000000008000059C     x7 <- 0x000000000000001A
core 0: 0x00000000800005A0     
core 0: 0x00000000800005A4     x3 <- 0x0000000000000020
core 0: 0x00000000800005A8     x4 <- 0x0000000000000000
core 0: 0x00000000800005AC     x2 <- 0x000000000000000B
core 0: 0x00000000800005B0     
core 0: 0x00000000800005B4     x1 <- 0x000000000000000D
core 0: 0x00000000800005B8     x14 <- 0x0000000000000018
core 0: 0x00000000800005BC     x4 <- 0x0000000000000001
core 0: 0x00000000800005C0     x5 <- 0x0000000000000002
core 0: 0x00000000800005C4     
core 0: 0x00000000800005AC     x2 <- 0x000000000000000B
core 0: 0x00000000800005B0     
core 0: 0x00000000800005B4     x1 <- 0x000000000000000D
core 0: 0x00000000800005B8     x14 <- 0x0000000000000018
core 0: 0x00000000800005BC     x4 <- 0x0000000000000002
core 0: 0x00000000800005C0     x5 <- 0x0000000000000002
core 0: 0x00000000800005C4     
core 0: 0x00000000800005C8     x7 <- 0x0000000000000018
core 0: 0x00000000800005CC     
core 0: 0x00000000800005D0     x3 <- 0x0000000000000021
core 0: 0x00000000800005D4     x4 <- 0x0000000000000000
core 0: 0x00000000800005D8     x2 <- 0x000000000000000B
core 0: 0x00000000800005DC     
core 0: 0x00000000800005E0     x1 <- 0x000000000000000E
core 0: 0x00000000800005E4     
core 0: 0x00000000800005E8     x14 <- 0x0000000000000019
core 0: 0x00000000800005EC     x4 <- 0x0000000000000001
core 0: 0x00000000800005F0     x5 <- 0x0000000000000002
core 0: 0x00000000800005F4     
core 0: 0x00000000800005D8     x2 <- 0x000000000000000B
core 0: 0x00000000800005DC     
core 0: 0x00000000800005E0     x1 <- 0x000000000000000E
core 0: 0x00000000800005E4     
core 0: 0x00000000800005E8     x14 <- 0x0000000000000019
core 0: 0x00000000800005EC     x4 <- 0x0000000000000002
core 0: 0x00000000800005F0     x5 <- 0x0000000000000002
core 0: 0x00000000800005F4     
core 0: 0x00000000800005F8     x7 <- 0x0000000000000019
core 0: 0x00000000800005FC     
core 0: 0x0000000080000600     x3 <- 0x0000000000000022
core 0: 0x0000000080000604     x4 <- 0x0000000000000000
core 0: 0x0000000080000608     x2 <- 0x000000000000000B
core 0: 0x000000008000060C     
core 0: 0x0000000080000610     
core 0: 0x0000000080000614     x1 <- 0x000000000000000F
core 0: 0x0000000080000618     x14 <- 0x000000000000001A
core 0: 0x000000008000061C     x4 <- 0x0000000000000001
core 0: 0x0000000080000620     x5 <- 0x0000000000000002
core 0: 0x0000000080000624     
core 0: 0x0000000080000608     x2 <- 0x000000000000000B
core 0: 0x000000008000060C     
core 0: 0x0000000080000610     
core 0: 0x0000000080000614     x1 <- 0x000000000000000F
core 0: 0x0000000080000618     x14 <- 0x000000000000001A
core 0: 0x000000008000061C     x4 <- 0x0000000000000002
core 0: 0x0000000080000620     x5 <- 0x0000000000000002
core 0: 0x0000000080000624     
core 0: 0x0000000080000628     x7 <- 0x000000000000001A
core 0: 0x000000008000062C     
core 0: 0x0000000080000630     x3 <- 0x0000000000000023
core 0: 0x0000000080000634     x1 <- 0x000000000000000F
core 0: 0x0000000080000638     x2 <- 0x000000000000000F
core 0: 0x000000008000063C     x7 <- 0x000000000000000F
core 0: 0x0000000080000640     
core 0: 0x0000000080000644     x3 <- 0x0000000000000024
core 0: 0x0000000080000648     x1 <- 0x0000000000000020
core 0: 0x000000008000064C     x2 <- 0x0000000000000020
core 0: 0x0000000080000650     x7 <- 0x0000000000000020
core 0: 0x0000000080000654     
core 0: 0x0000000080000658     x3 <- 0x0000000000000025
core 0: 0x000000008000065C     x1 <- 0x0000000000000000
core 0: 0x0000000080000660     x7 <- 0x0000000000000000
core 0: 0x0000000080000664     
core 0: 0x0000000080000668     x3 <- 0x0000000000000026
core 0: 0x000000008000066C     x1 <- 0x0000000000000010
core 0: 0x0000000080000670     x2 <- 0x000000000000001E
core 0: 0x0000000080000674     
core 0: 0x0000000080000678     x7 <- 0x0000000000000000
core 0: 0x000000008000067C     
core 0: 0x0000000080000680     
core 0: 0x00000000800006A0     fence
core 0: 0x00000000800006A4     x3 <- 0x0000000000000001
core 0: 0x00000000800006A8     x17 <- 0x000000000000005D
core 0: 0x00000000800006AC     x10 <- 0x0000000000000000
core 0: 0x00000000800006B0     
core 0: 0x0000000080000004     
core 0: 0x0000000080000008     x31 <- 0x0000000000000008
core 0: 0x000000008000000C     
core 0: 0x0000000080000010     x31 <- 0x0000000000000009
core 0: 0x0000000080000014     
core 0: 0x0000000080000018     x31 <- 0x000000000000000B
core 0: 0x000000008000001C     
core 0: 0x0000000080000040     x30 <- 0x0000000080001040
