
===========================================================================
 report_power
============================================================================
Group                  Internal  Switching    Leakage      Total
                          Power      Power      Power      Power (Watts)
----------------------------------------------------------------
Sequential             1.16e-01   1.71e-03   7.74e-08   1.18e-01  82.4%
Combinational          1.12e-02   1.38e-02   1.52e-07   2.51e-02  17.6%
Macro                  0.00e+00   0.00e+00   0.00e+00   0.00e+00   0.0%
Pad                    0.00e+00   0.00e+00   0.00e+00   0.00e+00   0.0%
----------------------------------------------------------------
Total                  1.27e-01   1.55e-02   2.29e-07   1.43e-01 100.0%
                          89.1%      10.9%       0.0%
